<?xml version="1.0" encoding="UTF-8" standalone="no"?>
<svg
   xmlns:dc="http://purl.org/dc/elements/1.1/"
   xmlns:cc="http://creativecommons.org/ns#"
   xmlns:rdf="http://www.w3.org/1999/02/22-rdf-syntax-ns#"
   xmlns:svg="http://www.w3.org/2000/svg"
   xmlns="http://www.w3.org/2000/svg"
   xmlns:sodipodi="http://sodipodi.sourceforge.net/DTD/sodipodi-0.dtd"
   xmlns:inkscape="http://www.inkscape.org/namespaces/inkscape"
   width="1541.3033"
   height="441"
   viewBox="0 0 1541.3034 441"
   id="svg2"
   version="1.1"
   inkscape:version="1.0.1 (1.0.1+r75)"
   sodipodi:docname="photonnet-long.svg"
   inkscape:export-filename="/home/top/Documents/work/code/photonnet/docs/static/photonnet-mobile.png"
   inkscape:export-xdpi="290"
   inkscape:export-ydpi="290">
  <defs
     id="defs4" />
  <sodipodi:namedview
     id="base"
     pagecolor="#ffffff"
     bordercolor="#666666"
     borderopacity="1.0"
     inkscape:pageopacity="0.0"
     inkscape:pageshadow="2"
     inkscape:zoom="0.75839336"
     inkscape:cx="696.84819"
     inkscape:cy="382.92495"
     inkscape:document-units="px"
     inkscape:current-layer="layer1"
     showgrid="false"
     inkscape:snap-bbox="true"
     inkscape:bbox-nodes="true"
     inkscape:object-nodes="true"
     inkscape:snap-others="true"
     inkscape:snap-object-midpoints="true"
     inkscape:snap-center="true"
     inkscape:window-width="1920"
     inkscape:window-height="1054"
     inkscape:window-x="0"
     inkscape:window-y="0"
     inkscape:window-maximized="1"
     fit-margin-top="0.5"
     fit-margin-left="0.5"
     fit-margin-right="0.5"
     fit-margin-bottom="0.5"
     units="px"
     inkscape:document-rotation="0"
     showguides="false"
     inkscape:guide-bbox="true"
     inkscape:snap-to-guides="true"
     inkscape:bbox-paths="true"
     inkscape:snap-bbox-edge-midpoints="true"
     inkscape:snap-bbox-midpoints="true">
    <sodipodi:guide
       position="-415.91618,220.87352"
       orientation="1,0"
       id="guide1035" />
    <sodipodi:guide
       position="-395.54274,200.50003"
       orientation="0,-1"
       id="guide1073" />
    <sodipodi:guide
       position="20.127446,316.91714"
       orientation="1,0"
       id="guide1483" />
    <sodipodi:guide
       position="0.50003574,290.79234"
       orientation="1,0"
       id="guide1490" />
    <sodipodi:guide
       position="0.50003574,290.79234"
       orientation="0,-1"
       id="guide1492" />
    <sodipodi:guide
       position="991.08677,150.20772"
       orientation="1,0"
       id="guide1494" />
    <sodipodi:guide
       position="991.08677,150.20772"
       orientation="0,-1"
       id="guide1496" />
  </sodipodi:namedview>
  <metadata
     id="metadata7">
    <rdf:RDF>
      <cc:Work
         rdf:about="">
        <dc:format>image/svg+xml</dc:format>
        <dc:type
           rdf:resource="http://purl.org/dc/dcmitype/StillImage" />
        <dc:title></dc:title>
      </cc:Work>
    </rdf:RDF>
  </metadata>
  <g
     inkscape:label="Layer 1"
     inkscape:groupmode="layer"
     id="layer1"
     transform="translate(-1091.7226,-595.88706)">
    <g
       id="g1470"
       transform="matrix(1.8958494,0,0,1.8958494,599.75324,-731.35922)"
       style="stroke-width:0.527468">
      <path
         style="font-variation-settings:normal;vector-effect:none;fill:none;fill-opacity:1;stroke:#00e1ff;stroke-width:5.27468;stroke-linecap:butt;stroke-linejoin:round;stroke-miterlimit:4;stroke-dasharray:none;stroke-dashoffset:0;stroke-opacity:1;stop-color:#000000"
         d="m 924.74646,847.82042 -57.76309,57.76309"
         id="path918"
         sodipodi:nodetypes="cc" />
      <path
         style="font-variation-settings:normal;vector-effect:none;fill:none;fill-opacity:1;stroke:#00e1ff;stroke-width:2.10987;stroke-linecap:butt;stroke-linejoin:miter;stroke-miterlimit:4;stroke-dasharray:none;stroke-dashoffset:0;stroke-opacity:1;stop-color:#000000"
         d="m 870.71143,909.32579 50.87165,-14.93593"
         id="path920"
         sodipodi:nodetypes="cc" />
      <path
         style="font-variation-settings:normal;vector-effect:none;fill:none;fill-opacity:1;stroke:#00e1ff;stroke-width:5.27468;stroke-linecap:butt;stroke-linejoin:round;stroke-miterlimit:4;stroke-dasharray:none;stroke-dashoffset:0;stroke-opacity:1;stop-color:#000000"
         d="M 1004.4,905.35412 947.53693,848.49103"
         id="path922"
         sodipodi:nodetypes="cc" />
      <path
         style="color:#000000;font-style:normal;font-variant:normal;font-weight:normal;font-stretch:normal;font-size:medium;line-height:normal;font-family:sans-serif;font-variant-ligatures:normal;font-variant-position:normal;font-variant-caps:normal;font-variant-numeric:normal;font-variant-alternates:normal;font-variant-east-asian:normal;font-feature-settings:normal;font-variation-settings:normal;text-indent:0;text-align:start;text-decoration:none;text-decoration-line:none;text-decoration-style:solid;text-decoration-color:#000000;letter-spacing:normal;word-spacing:normal;text-transform:none;writing-mode:lr-tb;direction:ltr;text-orientation:mixed;dominant-baseline:auto;baseline-shift:baseline;text-anchor:start;white-space:normal;shape-padding:0;shape-margin:0;inline-size:0;clip-rule:nonzero;display:inline;overflow:visible;visibility:visible;isolation:auto;mix-blend-mode:normal;color-interpolation:sRGB;color-interpolation-filters:linearRGB;solid-color:#000000;solid-opacity:1;vector-effect:none;fill:#00e1ff;fill-opacity:1;fill-rule:evenodd;stroke:none;stroke-width:2.63734;stroke-linecap:butt;stroke-linejoin:round;stroke-miterlimit:4;stroke-dasharray:none;stroke-dashoffset:0;stroke-opacity:1;color-rendering:auto;image-rendering:auto;shape-rendering:auto;text-rendering:auto;enable-background:accumulate;stop-color:#000000"
         d="m 860.13672,924.92969 c 6.87395,0 12.5,-5.62605 12.5,-12.5 0,-6.87395 -5.62605,-12.5 -12.5,-12.5 -6.87395,0 -12.5,5.62605 -12.5,12.5 0,6.87395 5.62605,12.5 12.5,12.5 z m 0,-5 c -4.17175,0 -7.5,-3.32826 -7.5,-7.5 0,-4.17175 3.32825,-7.5 7.5,-7.5 4.17175,0 7.5,3.32825 7.5,7.5 0,4.17174 -3.32825,7.5 -7.5,7.5 z"
         id="path1403" />
      <path
         style="font-variation-settings:normal;vector-effect:none;fill:none;fill-opacity:1;stroke:#00e1ff;stroke-width:2.10987;stroke-linecap:butt;stroke-linejoin:miter;stroke-miterlimit:4;stroke-dasharray:none;stroke-dashoffset:0;stroke-opacity:1;stop-color:#000000"
         d="M 1001.1657,909.40343 950.35403,894.48509"
         id="path926"
         sodipodi:nodetypes="cc" />
      <path
         style="color:#000000;font-style:normal;font-variant:normal;font-weight:normal;font-stretch:normal;font-size:medium;line-height:normal;font-family:sans-serif;font-variant-ligatures:normal;font-variant-position:normal;font-variant-caps:normal;font-variant-numeric:normal;font-variant-alternates:normal;font-variant-east-asian:normal;font-feature-settings:normal;font-variation-settings:normal;text-indent:0;text-align:start;text-decoration:none;text-decoration-line:none;text-decoration-style:solid;text-decoration-color:#000000;letter-spacing:normal;word-spacing:normal;text-transform:none;writing-mode:lr-tb;direction:ltr;text-orientation:mixed;dominant-baseline:auto;baseline-shift:baseline;text-anchor:start;white-space:normal;shape-padding:0;shape-margin:0;inline-size:0;clip-rule:nonzero;display:inline;overflow:visible;visibility:visible;isolation:auto;mix-blend-mode:normal;color-interpolation:sRGB;color-interpolation-filters:linearRGB;solid-color:#000000;solid-opacity:1;vector-effect:none;fill:#00e1ff;fill-opacity:1;fill-rule:evenodd;stroke:none;stroke-width:3.16481;stroke-linecap:butt;stroke-linejoin:round;stroke-miterlimit:4;stroke-dasharray:none;stroke-dashoffset:0;stroke-opacity:1;color-rendering:auto;image-rendering:auto;shape-rendering:auto;text-rendering:auto;enable-background:accumulate;stop-color:#000000"
         d="m 935.80664,907.71484 c 9.62945,0 17.5,-7.87055 17.5,-17.5 0,-9.62945 -7.87055,-17.5 -17.5,-17.5 -9.62945,0 -17.5,7.87055 -17.5,17.5 0,9.62945 7.87055,17.5 17.5,17.5 z m 0,-6 c -6.38681,0 -11.5,-5.11319 -11.5,-11.5 0,-6.3868 5.11319,-11.5 11.5,-11.5 6.38681,0 11.5,5.1132 11.5,11.5 0,6.38681 -5.11319,11.5 -11.5,11.5 z"
         id="path1397" />
      <path
         style="color:#000000;font-style:normal;font-variant:normal;font-weight:normal;font-stretch:normal;font-size:medium;line-height:normal;font-family:sans-serif;font-variant-ligatures:normal;font-variant-position:normal;font-variant-caps:normal;font-variant-numeric:normal;font-variant-alternates:normal;font-variant-east-asian:normal;font-feature-settings:normal;font-variation-settings:normal;text-indent:0;text-align:start;text-decoration:none;text-decoration-line:none;text-decoration-style:solid;text-decoration-color:#000000;letter-spacing:normal;word-spacing:normal;text-transform:none;writing-mode:lr-tb;direction:ltr;text-orientation:mixed;dominant-baseline:auto;baseline-shift:baseline;text-anchor:start;white-space:normal;shape-padding:0;shape-margin:0;inline-size:0;clip-rule:nonzero;display:inline;overflow:visible;visibility:visible;isolation:auto;mix-blend-mode:normal;color-interpolation:sRGB;color-interpolation-filters:linearRGB;solid-color:#000000;solid-opacity:1;vector-effect:none;fill:#00e1ff;fill-opacity:1;fill-rule:evenodd;stroke:none;stroke-width:2.63734;stroke-linecap:butt;stroke-linejoin:round;stroke-miterlimit:4;stroke-dasharray:none;stroke-dashoffset:0;stroke-opacity:1;color-rendering:auto;image-rendering:auto;shape-rendering:auto;text-rendering:auto;enable-background:accumulate;stop-color:#000000"
         d="m 1011.4766,924.92969 c 6.8739,0 12.5,-5.62605 12.5,-12.5 0,-6.87395 -5.6261,-12.5 -12.5,-12.5 -6.874,0 -12.50004,5.62605 -12.50004,12.5 0,6.87395 5.62604,12.5 12.50004,12.5 z m 0,-5 c -4.1718,0 -7.5,-3.32826 -7.5,-7.5 0,-4.17175 3.3282,-7.5 7.5,-7.5 4.1717,0 7.5,3.32825 7.5,7.5 0,4.17174 -3.3283,7.5 -7.5,7.5 z"
         id="path1391" />
      <path
         style="font-variation-settings:normal;vector-effect:none;fill:none;fill-opacity:1;stroke:#00e1ff;stroke-width:5.27468;stroke-linecap:butt;stroke-linejoin:round;stroke-miterlimit:4;stroke-dasharray:none;stroke-dashoffset:0;stroke-opacity:1;stop-color:#000000"
         d="m 967.34116,827.54834 72.06784,72.06779"
         id="path934"
         sodipodi:nodetypes="cc" />
      <path
         style="font-variation-settings:normal;vector-effect:none;fill:none;fill-opacity:1;stroke:#00e1ff;stroke-width:2.10987;stroke-linecap:butt;stroke-linejoin:miter;stroke-miterlimit:4;stroke-dasharray:none;stroke-dashoffset:0;stroke-opacity:1;stop-color:#000000"
         d="m 1047.4789,894.72342 -19.0698,-71.16916"
         id="path936"
         sodipodi:nodetypes="cc" />
      <path
         style="font-variation-settings:normal;vector-effect:none;fill:none;fill-opacity:1;stroke:#00e1ff;stroke-width:5.27468;stroke-linecap:butt;stroke-linejoin:round;stroke-miterlimit:4;stroke-dasharray:none;stroke-dashoffset:0;stroke-opacity:1;stop-color:#000000"
         d="m 1041.7004,730.86658 -74.9229,74.92284"
         id="path938"
         sodipodi:nodetypes="cc" />
      <path
         style="font-variation-settings:normal;vector-effect:none;fill:none;fill-opacity:1;stroke:#00e1ff;stroke-width:2.10987;stroke-linecap:butt;stroke-linejoin:miter;stroke-miterlimit:4;stroke-dasharray:none;stroke-dashoffset:0;stroke-opacity:1;stop-color:#000000"
         d="m 1048.2845,735.04384 -19.78,73.82003"
         id="path942"
         sodipodi:nodetypes="cc" />
      <path
         style="color:#000000;font-style:normal;font-variant:normal;font-weight:normal;font-stretch:normal;font-size:medium;line-height:normal;font-family:sans-serif;font-variant-ligatures:normal;font-variant-position:normal;font-variant-caps:normal;font-variant-numeric:normal;font-variant-alternates:normal;font-variant-east-asian:normal;font-feature-settings:normal;font-variation-settings:normal;text-indent:0;text-align:start;text-decoration:none;text-decoration-line:none;text-decoration-style:solid;text-decoration-color:#000000;letter-spacing:normal;word-spacing:normal;text-transform:none;writing-mode:lr-tb;direction:ltr;text-orientation:mixed;dominant-baseline:auto;baseline-shift:baseline;text-anchor:start;white-space:normal;shape-padding:0;shape-margin:0;inline-size:0;clip-rule:nonzero;display:inline;overflow:visible;visibility:visible;isolation:auto;mix-blend-mode:normal;color-interpolation:sRGB;color-interpolation-filters:linearRGB;solid-color:#000000;solid-opacity:1;vector-effect:none;fill:#00e1ff;fill-opacity:1;fill-rule:evenodd;stroke:none;stroke-width:3.69228;stroke-linecap:butt;stroke-linejoin:round;stroke-miterlimit:4;stroke-dasharray:none;stroke-dashoffset:0;stroke-opacity:1;color-rendering:auto;image-rendering:auto;shape-rendering:auto;text-rendering:auto;enable-background:accumulate;stop-color:#000000"
         d="m 1072.2227,720.34375 c 0,-11.00424 -8.9958,-20 -20,-20 -11.0043,0 -20,8.99576 -20,20 0,11.00424 8.9957,20 20,20 11.0042,0 20,-8.99576 20,-20 z m -7,0 c 0,7.22116 -5.7789,13 -13,13 -7.2212,0 -13,-5.77884 -13,-13 0,-7.22116 5.7788,-13 13,-13 7.2211,0 13,5.77884 13,13 z"
         id="path1373" />
      <path
         style="color:#000000;font-style:normal;font-variant:normal;font-weight:normal;font-stretch:normal;font-size:medium;line-height:normal;font-family:sans-serif;font-variant-ligatures:normal;font-variant-position:normal;font-variant-caps:normal;font-variant-numeric:normal;font-variant-alternates:normal;font-variant-east-asian:normal;font-feature-settings:normal;font-variation-settings:normal;text-indent:0;text-align:start;text-decoration:none;text-decoration-line:none;text-decoration-style:solid;text-decoration-color:#000000;letter-spacing:normal;word-spacing:normal;text-transform:none;writing-mode:lr-tb;direction:ltr;text-orientation:mixed;dominant-baseline:auto;baseline-shift:baseline;text-anchor:start;white-space:normal;shape-padding:0;shape-margin:0;inline-size:0;clip-rule:nonzero;display:inline;overflow:visible;visibility:visible;isolation:auto;mix-blend-mode:normal;color-interpolation:sRGB;color-interpolation-filters:linearRGB;solid-color:#000000;solid-opacity:1;vector-effect:none;fill:#00e1ff;fill-opacity:1;fill-rule:evenodd;stroke:none;stroke-width:3.16481;stroke-linecap:butt;stroke-linejoin:round;stroke-miterlimit:4;stroke-dasharray:none;stroke-dashoffset:0;stroke-opacity:1;color-rendering:auto;image-rendering:auto;shape-rendering:auto;text-rendering:auto;enable-background:accumulate;stop-color:#000000"
         d="m 1036.4883,816.38672 c 0,-5.48731 -4.5127,-10 -10,-10 -5.4873,0 -10,4.51269 -10,10 0,5.48731 4.5127,10 10,10 5.4873,0 10,-4.51269 10,-10 z m -6,0 c 0,2.24467 -1.7553,4 -4,4 -2.2447,0 -4,-1.75533 -4,-4 0,-2.24467 1.7553,-4 4,-4 2.2447,0 4,1.75533 4,4 z"
         id="path1379" />
      <path
         style="color:#000000;font-style:normal;font-variant:normal;font-weight:normal;font-stretch:normal;font-size:medium;line-height:normal;font-family:sans-serif;font-variant-ligatures:normal;font-variant-position:normal;font-variant-caps:normal;font-variant-numeric:normal;font-variant-alternates:normal;font-variant-east-asian:normal;font-feature-settings:normal;font-variation-settings:normal;text-indent:0;text-align:start;text-decoration:none;text-decoration-line:none;text-decoration-style:solid;text-decoration-color:#000000;letter-spacing:normal;word-spacing:normal;text-transform:none;writing-mode:lr-tb;direction:ltr;text-orientation:mixed;dominant-baseline:auto;baseline-shift:baseline;text-anchor:start;white-space:normal;shape-padding:0;shape-margin:0;inline-size:0;clip-rule:nonzero;display:inline;overflow:visible;visibility:visible;isolation:auto;mix-blend-mode:normal;color-interpolation:sRGB;color-interpolation-filters:linearRGB;solid-color:#000000;solid-opacity:1;vector-effect:none;fill:#00e1ff;fill-opacity:1;fill-rule:evenodd;stroke:none;stroke-width:3.69228;stroke-linecap:butt;stroke-linejoin:round;stroke-miterlimit:4;stroke-dasharray:none;stroke-dashoffset:0;stroke-opacity:1;color-rendering:auto;image-rendering:auto;shape-rendering:auto;text-rendering:auto;enable-background:accumulate;stop-color:#000000"
         d="m 1072.2227,912.42969 c 0,-11.00424 -8.9958,-20 -20,-20 -11.0043,0 -20,8.99576 -20,20 0,11.00424 8.9957,20 20,20 11.0042,0 20,-8.99576 20,-20 z m -7,0 c 0,7.22116 -5.7789,13 -13,13 -7.2212,0 -13,-5.77884 -13,-13 0,-7.22116 5.7788,-13 13,-13 7.2211,0 13,5.77884 13,13 z"
         id="path1385" />
      <path
         style="font-variation-settings:normal;vector-effect:none;fill:none;fill-opacity:1;stroke:#00e1ff;stroke-width:5.27468;stroke-linecap:butt;stroke-linejoin:round;stroke-miterlimit:4;stroke-dasharray:none;stroke-dashoffset:0;stroke-opacity:1;stop-color:#000000"
         d="M 904.21138,805.1655 831.51795,732.47207"
         id="path950"
         sodipodi:nodetypes="cc" />
      <path
         style="font-variation-settings:normal;vector-effect:none;fill:none;fill-opacity:1;stroke:#00e1ff;stroke-width:2.10987;stroke-linecap:butt;stroke-linejoin:miter;stroke-miterlimit:4;stroke-dasharray:none;stroke-dashoffset:0;stroke-opacity:1;stop-color:#000000"
         d="m 823.69319,736.40574 19.42658,72.50106"
         id="path952"
         sodipodi:nodetypes="cc" />
      <path
         style="font-variation-settings:normal;vector-effect:none;fill:none;fill-opacity:1;stroke:#00e1ff;stroke-width:5.27468;stroke-linecap:butt;stroke-linejoin:round;stroke-miterlimit:4;stroke-dasharray:none;stroke-dashoffset:0;stroke-opacity:1;stop-color:#000000"
         d="m 830.70964,901.11034 75.05271,-75.05271"
         id="path954"
         sodipodi:nodetypes="cc" />
      <path
         style="font-variation-settings:normal;vector-effect:none;fill:none;fill-opacity:1;stroke:#00e1ff;stroke-width:2.10987;stroke-linecap:butt;stroke-linejoin:miter;stroke-miterlimit:4;stroke-dasharray:none;stroke-dashoffset:0;stroke-opacity:1;stop-color:#000000"
         d="m 823.93359,895.47119 19.29228,-71.99977"
         id="path958"
         sodipodi:nodetypes="cc" />
      <path
         style="color:#000000;font-style:normal;font-variant:normal;font-weight:normal;font-stretch:normal;font-size:medium;line-height:normal;font-family:sans-serif;font-variant-ligatures:normal;font-variant-position:normal;font-variant-caps:normal;font-variant-numeric:normal;font-variant-alternates:normal;font-variant-east-asian:normal;font-feature-settings:normal;font-variation-settings:normal;text-indent:0;text-align:start;text-decoration:none;text-decoration-line:none;text-decoration-style:solid;text-decoration-color:#000000;letter-spacing:normal;word-spacing:normal;text-transform:none;writing-mode:lr-tb;direction:ltr;text-orientation:mixed;dominant-baseline:auto;baseline-shift:baseline;text-anchor:start;white-space:normal;shape-padding:0;shape-margin:0;inline-size:0;clip-rule:nonzero;display:inline;overflow:visible;visibility:visible;isolation:auto;mix-blend-mode:normal;color-interpolation:sRGB;color-interpolation-filters:linearRGB;solid-color:#000000;solid-opacity:1;vector-effect:none;fill:#00e1ff;fill-opacity:1;fill-rule:evenodd;stroke:none;stroke-width:3.69228;stroke-linecap:butt;stroke-linejoin:round;stroke-miterlimit:4;stroke-dasharray:none;stroke-dashoffset:0;stroke-opacity:1;color-rendering:auto;image-rendering:auto;shape-rendering:auto;text-rendering:auto;enable-background:accumulate;stop-color:#000000"
         d="m 799.38867,912.42969 c 0,11.00424 8.99576,20 20,20 11.00424,0 20,-8.99576 20,-20 0,-11.00424 -8.99576,-20 -20,-20 -11.00424,0 -20,8.99576 -20,20 z m 7,0 c 0,-7.22116 5.77884,-13 13,-13 7.22116,0 13,5.77884 13,13 0,7.22116 -5.77884,13 -13,13 -7.22116,0 -13,-5.77884 -13,-13 z"
         id="path1409" />
      <path
         style="color:#000000;font-style:normal;font-variant:normal;font-weight:normal;font-stretch:normal;font-size:medium;line-height:normal;font-family:sans-serif;font-variant-ligatures:normal;font-variant-position:normal;font-variant-caps:normal;font-variant-numeric:normal;font-variant-alternates:normal;font-variant-east-asian:normal;font-feature-settings:normal;font-variation-settings:normal;text-indent:0;text-align:start;text-decoration:none;text-decoration-line:none;text-decoration-style:solid;text-decoration-color:#000000;letter-spacing:normal;word-spacing:normal;text-transform:none;writing-mode:lr-tb;direction:ltr;text-orientation:mixed;dominant-baseline:auto;baseline-shift:baseline;text-anchor:start;white-space:normal;shape-padding:0;shape-margin:0;inline-size:0;clip-rule:nonzero;display:inline;overflow:visible;visibility:visible;isolation:auto;mix-blend-mode:normal;color-interpolation:sRGB;color-interpolation-filters:linearRGB;solid-color:#000000;solid-opacity:1;vector-effect:none;fill:#00e1ff;fill-opacity:1;fill-rule:evenodd;stroke:none;stroke-width:3.16481;stroke-linecap:butt;stroke-linejoin:round;stroke-miterlimit:4;stroke-dasharray:none;stroke-dashoffset:0;stroke-opacity:1;color-rendering:auto;image-rendering:auto;shape-rendering:auto;text-rendering:auto;enable-background:accumulate;stop-color:#000000"
         d="m 835.125,816.38672 c 0,5.48731 4.51269,10 10,10 5.48731,0 10,-4.51269 10,-10 0,-5.48731 -4.51269,-10 -10,-10 -5.48731,0 -10,4.51269 -10,10 z m 6,0 c 0,-2.24467 1.75533,-4 4,-4 2.24467,0 4,1.75533 4,4 0,2.24467 -1.75533,4 -4,4 -2.24467,0 -4,-1.75533 -4,-4 z"
         id="path1415" />
      <path
         style="color:#000000;font-style:normal;font-variant:normal;font-weight:normal;font-stretch:normal;font-size:medium;line-height:normal;font-family:sans-serif;font-variant-ligatures:normal;font-variant-position:normal;font-variant-caps:normal;font-variant-numeric:normal;font-variant-alternates:normal;font-variant-east-asian:normal;font-feature-settings:normal;font-variation-settings:normal;text-indent:0;text-align:start;text-decoration:none;text-decoration-line:none;text-decoration-style:solid;text-decoration-color:#000000;letter-spacing:normal;word-spacing:normal;text-transform:none;writing-mode:lr-tb;direction:ltr;text-orientation:mixed;dominant-baseline:auto;baseline-shift:baseline;text-anchor:start;white-space:normal;shape-padding:0;shape-margin:0;inline-size:0;clip-rule:nonzero;display:inline;overflow:visible;visibility:visible;isolation:auto;mix-blend-mode:normal;color-interpolation:sRGB;color-interpolation-filters:linearRGB;solid-color:#000000;solid-opacity:1;vector-effect:none;fill:#00e1ff;fill-opacity:1;fill-rule:evenodd;stroke:none;stroke-width:3.69228;stroke-linecap:butt;stroke-linejoin:round;stroke-miterlimit:4;stroke-dasharray:none;stroke-dashoffset:0;stroke-opacity:1;color-rendering:auto;image-rendering:auto;shape-rendering:auto;text-rendering:auto;enable-background:accumulate;stop-color:#000000"
         d="m 799.38867,720.34375 c 0,11.00424 8.99576,20 20,20 11.00424,0 20,-8.99576 20,-20 0,-11.00424 -8.99576,-20 -20,-20 -11.00424,0 -20,8.99576 -20,20 z m 7,0 c 0,-7.22116 5.77884,-13 13,-13 7.22116,0 13,5.77884 13,13 0,7.22116 -5.77884,13 -13,13 -7.22116,0 -13,-5.77884 -13,-13 z"
         id="path1349" />
      <path
         style="font-variation-settings:normal;vector-effect:none;fill:none;fill-opacity:1;stroke:#00e1ff;stroke-width:5.27468;stroke-linecap:butt;stroke-linejoin:round;stroke-miterlimit:4;stroke-dasharray:none;stroke-dashoffset:0;stroke-opacity:1;stop-color:#000000"
         d="m 946.11391,785.70601 58.63519,-58.63522"
         id="path966"
         sodipodi:nodetypes="cc" />
      <path
         style="font-variation-settings:normal;vector-effect:none;fill:none;fill-opacity:1;stroke:#00e1ff;stroke-width:2.10987;stroke-linecap:butt;stroke-linejoin:miter;stroke-miterlimit:4;stroke-dasharray:none;stroke-dashoffset:0;stroke-opacity:1;stop-color:#000000"
         d="m 1001.7953,723.18575 -51.20896,15.03497"
         id="path968"
         sodipodi:nodetypes="cc" />
      <path
         style="font-variation-settings:normal;vector-effect:none;fill:none;fill-opacity:1;stroke:#00e1ff;stroke-width:5.27468;stroke-linecap:butt;stroke-linejoin:round;stroke-miterlimit:4;stroke-dasharray:none;stroke-dashoffset:0;stroke-opacity:1;stop-color:#000000"
         d="m 867.1857,727.3928 57.25459,57.2546"
         id="path970"
         sodipodi:nodetypes="cc" />
      <path
         style="color:#000000;font-style:normal;font-variant:normal;font-weight:normal;font-stretch:normal;font-size:medium;line-height:normal;font-family:sans-serif;font-variant-ligatures:normal;font-variant-position:normal;font-variant-caps:normal;font-variant-numeric:normal;font-variant-alternates:normal;font-variant-east-asian:normal;font-feature-settings:normal;font-variation-settings:normal;text-indent:0;text-align:start;text-decoration:none;text-decoration-line:none;text-decoration-style:solid;text-decoration-color:#000000;letter-spacing:normal;word-spacing:normal;text-transform:none;writing-mode:lr-tb;direction:ltr;text-orientation:mixed;dominant-baseline:auto;baseline-shift:baseline;text-anchor:start;white-space:normal;shape-padding:0;shape-margin:0;inline-size:0;clip-rule:nonzero;display:inline;overflow:visible;visibility:visible;isolation:auto;mix-blend-mode:normal;color-interpolation:sRGB;color-interpolation-filters:linearRGB;solid-color:#000000;solid-opacity:1;vector-effect:none;fill:#00e1ff;fill-opacity:1;fill-rule:evenodd;stroke:none;stroke-width:2.63734;stroke-linecap:butt;stroke-linejoin:round;stroke-miterlimit:4;stroke-dasharray:none;stroke-dashoffset:0;stroke-opacity:1;color-rendering:auto;image-rendering:auto;shape-rendering:auto;text-rendering:auto;enable-background:accumulate;stop-color:#000000"
         d="m 1011.4766,707.84375 c -6.874,0 -12.50004,5.62605 -12.50004,12.5 0,6.87395 5.62604,12.5 12.50004,12.5 6.8739,0 12.5,-5.62605 12.5,-12.5 0,-6.87395 -5.6261,-12.5 -12.5,-12.5 z m 0,5 c 4.1717,0 7.5,3.32825 7.5,7.5 0,4.17175 -3.3283,7.5 -7.5,7.5 -4.1718,0 -7.5,-3.32825 -7.5,-7.5 0,-4.17175 3.3282,-7.5 7.5,-7.5 z"
         id="path1367" />
      <path
         style="font-variation-settings:normal;vector-effect:none;fill:none;fill-opacity:1;stroke:#00e1ff;stroke-width:2.10987;stroke-linecap:butt;stroke-linejoin:miter;stroke-miterlimit:4;stroke-dasharray:none;stroke-dashoffset:0;stroke-opacity:1;stop-color:#000000"
         d="m 869.45762,723.08008 51.98707,15.26343"
         id="path974"
         sodipodi:nodetypes="cc" />
      <path
         style="color:#000000;font-style:normal;font-variant:normal;font-weight:normal;font-stretch:normal;font-size:medium;line-height:normal;font-family:sans-serif;font-variant-ligatures:normal;font-variant-position:normal;font-variant-caps:normal;font-variant-numeric:normal;font-variant-alternates:normal;font-variant-east-asian:normal;font-feature-settings:normal;font-variation-settings:normal;text-indent:0;text-align:start;text-decoration:none;text-decoration-line:none;text-decoration-style:solid;text-decoration-color:#000000;letter-spacing:normal;word-spacing:normal;text-transform:none;writing-mode:lr-tb;direction:ltr;text-orientation:mixed;dominant-baseline:auto;baseline-shift:baseline;text-anchor:start;white-space:normal;shape-padding:0;shape-margin:0;inline-size:0;clip-rule:nonzero;display:inline;overflow:visible;visibility:visible;isolation:auto;mix-blend-mode:normal;color-interpolation:sRGB;color-interpolation-filters:linearRGB;solid-color:#000000;solid-opacity:1;vector-effect:none;fill:#00e1ff;fill-opacity:1;fill-rule:evenodd;stroke:none;stroke-width:3.16481;stroke-linecap:butt;stroke-linejoin:round;stroke-miterlimit:4;stroke-dasharray:none;stroke-dashoffset:0;stroke-opacity:1;color-rendering:auto;image-rendering:auto;shape-rendering:auto;text-rendering:auto;enable-background:accumulate;stop-color:#000000"
         d="m 935.80664,725.06055 c -9.62945,0 -17.5,7.87055 -17.5,17.5 0,9.62945 7.87055,17.5 17.5,17.5 9.62945,0 17.5,-7.87055 17.5,-17.5 0,-9.62945 -7.87055,-17.5 -17.5,-17.5 z m 0,6 c 6.38681,0 11.5,5.11319 11.5,11.5 0,6.38681 -5.11319,11.5 -11.5,11.5 -6.38681,0 -11.5,-5.11319 -11.5,-11.5 0,-6.38681 5.11319,-11.5 11.5,-11.5 z"
         id="path1361" />
      <path
         style="color:#000000;font-style:normal;font-variant:normal;font-weight:normal;font-stretch:normal;font-size:medium;line-height:normal;font-family:sans-serif;font-variant-ligatures:normal;font-variant-position:normal;font-variant-caps:normal;font-variant-numeric:normal;font-variant-alternates:normal;font-variant-east-asian:normal;font-feature-settings:normal;font-variation-settings:normal;text-indent:0;text-align:start;text-decoration:none;text-decoration-line:none;text-decoration-style:solid;text-decoration-color:#000000;letter-spacing:normal;word-spacing:normal;text-transform:none;writing-mode:lr-tb;direction:ltr;text-orientation:mixed;dominant-baseline:auto;baseline-shift:baseline;text-anchor:start;white-space:normal;shape-padding:0;shape-margin:0;inline-size:0;clip-rule:nonzero;display:inline;overflow:visible;visibility:visible;isolation:auto;mix-blend-mode:normal;color-interpolation:sRGB;color-interpolation-filters:linearRGB;solid-color:#000000;solid-opacity:1;vector-effect:none;fill:#00e1ff;fill-opacity:1;fill-rule:evenodd;stroke:none;stroke-width:2.63734;stroke-linecap:butt;stroke-linejoin:round;stroke-miterlimit:4;stroke-dasharray:none;stroke-dashoffset:0;stroke-opacity:1;color-rendering:auto;image-rendering:auto;shape-rendering:auto;text-rendering:auto;enable-background:accumulate;stop-color:#000000"
         d="m 860.13672,707.84375 c -6.87395,0 -12.5,5.62605 -12.5,12.5 0,6.87395 5.62605,12.5 12.5,12.5 6.87395,0 12.5,-5.62605 12.5,-12.5 0,-6.87395 -5.62605,-12.5 -12.5,-12.5 z m 0,5 c 4.17175,0 7.5,3.32825 7.5,7.5 0,4.17175 -3.32825,7.5 -7.5,7.5 -4.17175,0 -7.5,-3.32825 -7.5,-7.5 0,-4.17175 3.32825,-7.5 7.5,-7.5 z"
         id="path1355" />
      <path
         id="path1296"
         style="color:#000000;font-style:normal;font-variant:normal;font-weight:normal;font-stretch:normal;font-size:medium;line-height:normal;font-family:sans-serif;font-variant-ligatures:normal;font-variant-position:normal;font-variant-caps:normal;font-variant-numeric:normal;font-variant-alternates:normal;font-variant-east-asian:normal;font-feature-settings:normal;font-variation-settings:normal;text-indent:0;text-align:start;text-decoration:none;text-decoration-line:none;text-decoration-style:solid;text-decoration-color:#000000;letter-spacing:normal;word-spacing:normal;text-transform:none;writing-mode:lr-tb;direction:ltr;text-orientation:mixed;dominant-baseline:auto;baseline-shift:baseline;text-anchor:start;white-space:normal;shape-padding:0;shape-margin:0;inline-size:0;clip-rule:nonzero;display:inline;overflow:visible;visibility:visible;isolation:auto;mix-blend-mode:normal;color-interpolation:sRGB;color-interpolation-filters:linearRGB;solid-color:#000000;solid-opacity:1;vector-effect:none;fill:#00e1ff;fill-opacity:1;fill-rule:evenodd;stroke:none;stroke-width:4.21974;stroke-linecap:butt;stroke-linejoin:round;stroke-miterlimit:4;stroke-dasharray:none;stroke-dashoffset:0;stroke-opacity:1;color-rendering:auto;image-rendering:auto;shape-rendering:auto;text-rendering:auto;enable-background:accumulate;stop-color:#000000"
         d="m 136.91797,77.705078 c -5.8018,0 -10.99511,2.722069 -14.38281,6.947266 -7.74573,3.511671 -13.99587,9.76224 -17.50782,17.507816 -4.22519,3.38771 -6.947262,8.58102 -6.947262,14.38281 0,5.8019 2.721982,10.99495 6.947262,14.38281 3.51183,7.74583 9.76199,13.99599 17.50782,17.50781 3.38786,4.22529 8.58091,6.94727 14.38281,6.94727 5.80179,0 10.9951,-2.72207 14.38281,-6.94727 7.74545,-3.51189 13.99416,-9.76225 17.50586,-17.50781 4.2259,-3.38769 6.94922,-8.58046 6.94922,-14.38281 0,-5.80323 -2.7222,-10.99727 -6.94922,-14.38477 -3.51185,-7.744304 -9.76139,-13.992344 -17.50586,-17.503903 -3.38752,-4.226502 -8.58001,-6.949219 -14.38281,-6.949219 z m 0,11.837891 c 14.95909,0 27,12.040911 27,27.000001 0,14.95909 -12.04091,27 -27,27 -14.9591,0 -27,-12.0409 -27,-27 0,-14.9591 12.04091,-27.000001 27,-27.000001 z"
         transform="translate(798.88929,699.84344)" />
    </g>
    <text
       xml:space="preserve"
       style="font-style:normal;font-variant:normal;font-weight:normal;font-stretch:normal;font-size:195.596px;line-height:1;font-family:Roboto;-inkscape-font-specification:'Roboto, Normal';font-variant-ligatures:normal;font-variant-caps:small-caps;font-variant-numeric:normal;font-variant-east-asian:normal;text-align:start;letter-spacing:0px;word-spacing:0px;writing-mode:lr-tb;text-anchor:start;fill:#00bfd8;fill-opacity:1;stroke:none;stroke-width:0.999999"
       x="1076.0822"
       y="885.15125"
       id="text1488"><tspan
         sodipodi:role="line"
         id="tspan1486"
         x="1076.0822"
         y="885.15125"
         style="font-style:normal;font-variant:normal;font-weight:normal;font-stretch:normal;font-size:195.596px;font-family:Roboto;-inkscape-font-specification:'Roboto, Normal';font-variant-ligatures:normal;font-variant-caps:small-caps;font-variant-numeric:normal;font-variant-east-asian:normal;fill:#00bfd8;fill-opacity:1;stroke-width:0.999999">Photonnet</tspan></text>
    <path
       style="font-variation-settings:normal;opacity:1;vector-effect:none;fill:none;fill-opacity:1;stroke:#00e1ff;stroke-width:4;stroke-linecap:butt;stroke-linejoin:miter;stroke-miterlimit:4;stroke-dasharray:none;stroke-dashoffset:0;stroke-opacity:1;stop-color:#000000;stop-opacity:1"
       d="m 1092.2226,902.67934 h 990.5868"
       id="path1498" />
    <path
       style="fill:none;stroke:#00e1ff;stroke-width:4;stroke-linecap:butt;stroke-linejoin:miter;stroke-miterlimit:4;stroke-dasharray:none;stroke-opacity:1"
       d="M 2082.8094,730.09472 H 1092.2226"
       id="path1500" />
  </g>
</svg>
